…
#### Palette generation

It’s also possible to create your own nested palette for other purposes:

``` r
nested_palette(diamonds,
               group = "color",
               subgroup = "cut")
#> # A tibble: 35 × 5
#>    color cut       group_colour subgroup_colour group_subgroup
#>    <ord> <ord>     <chr>        <chr>           <chr>         
#>  1 D     Fair      #008CF0      #003D69         D_Fair        
#>  2 D     Good      #008CF0      #29648E         D_Good        
#>  3 D     Very Good #008CF0      #538BB3         D_Very Good   
#>  4 D     Premium   #008CF0      #7CB2D9         D_Premium     
#>  5 D     Ideal     #008CF0      #A6DAFF         D_Ideal       
#>  6 E     Fair      #F0CB00      #695800         E_Fair        
#>  7 E     Good      #F0CB00      #8E7E29         E_Good        
#>  8 E     Very Good #F0CB00      #B3A453         E_Very Good   
#>  9 E     Premium   #F0CB00      #D9CA7C         E_Premium     
#> 10 E     Ideal     #F0CB00      #FFF1A6         E_Ideal       
#> # … with 25 more rows
```

Alternatively, the colour palette can be extracted from the ggplot2
object using `extract_palette`.

``` r
extract_palette(p)
#> # A tibble: 35 × 3
#>    group_subgroup group_colour subgroup_colour
#>    <ord>          <chr>        <chr>          
#>  1 D - Fair       violet       #5C0D5C        
#>  2 D - Good       violet       #823582        
#>  3 D - Very Good  violet       #A85EA8        
#>  4 D - Premium    violet       #CE87CE        
#>  5 D - Ideal      violet       #F4B0F4        
#>  6 E - Fair       red          #690000        
#>  7 E - Good       red          #8E2929        
#>  8 E - Very Good  red          #B35353        
#>  9 E - Premium    red          #D97C7C        
#> 10 E - Ideal      red          #FFA6A6        
#> # … with 25 more rows
```
…
